{
    "app_url": "http://www.fabriciobiron.me/blastmotion/api/public",
    "api_prefix": "/api",
    "oauth":{
        "authorization_route": "/oauth/token",
        "grant_type": "password",
        "scope": "*",
        "client_id": "3",
        "client_secret": "iLTucIIBhFodS7nTAGzRL5cHmthPe2EFsf8GMxaq"
    }
}